<?xml version="1.0" standalone="no"?>
<!DOCTYPE svg PUBLIC "-//W3C//DTD SVG 1.1//EN" "http://www.w3.org/Graphics/SVG/1.1/DTD/svg11.dtd">
<svg xmlns="http://www.w3.org/2000/svg">
<metadata>Copyright (C) 2019 by original authors @ fontello.com</metadata>
<defs>
<font id="fontello" horiz-adv-x="1000" >
<font-face font-family="fontello" font-weight="400" font-stretch="normal" units-per-em="1000" ascent="850" descent="-150" />
<missing-glyph horiz-adv-x="1000" />
<glyph glyph-name="cancel" unicode="&#xe800;" d="M0 90q0 36 26 62l195 195-195 196q-26 25-26 61t26 61 61 25 61-25l196-196 195 196q25 25 61 25t61-25 25-61-25-61l-195-196 195-195q25-26 25-62t-25-61q-25-25-61-25t-61 25l-195 195-196-195q-25-25-61-25t-61 25q-26 26-26 61z" horiz-adv-x="686.5" />

<glyph glyph-name="work" unicode="&#xe802;" d="M781 610q65 0 111-45t46-111l0-364q0-65-46-110t-111-46l-625 0q-65 0-110 46t-46 110l0 364q0 65 46 111t110 45q0 65 46 111t111 46l312 0q65 0 111-46t45-111z m-468 53q-22 0-37-16t-16-37l418 0q0 22-16 37t-37 16l-312 0z m521-573l0 52-730 0 0-52q0-21 15-37t37-15l625 0q22 0 37 15t16 37z m-730 104l730 0 0 260q0 21-16 37t-37 16l-625 0q-21 0-37-16t-15-37l0-260z m417 156q22 0 37-15t15-37-15-36-37-15l-105 0q-21 0-36 15t-15 36 15 37 36 15l105 0z" horiz-adv-x="938" />

<glyph glyph-name="menu" unicode="&#xf008;" d="M68 62q0-30 21-51t51-21h793q30 0 51 21t21 51-21 51-51 21h-793q-29 0-51-21t-21-51z m0 288q0-30 21-51t51-21h793q30 0 51 21t21 51-21 51-51 21h-793q-29 0-51-21t-21-51z m0 288q0-30 21-51t51-21h793q30 0 51 21t21 51-21 51-51 21h-793q-29 0-51-21t-21-51z" horiz-adv-x="1073.2" />
</font>
</defs>
</svg>